p8105\_hw2\_xs2384
================

Problem 1
---------

``` r
library(tidyverse)
mr_trash_wheel = readxl::read_excel("./datasets/Trash-Wheel-Collection-Totals-8-6-19.xlsx",sheet = "Mr. Trash Wheel", range = "A2:N407") %>% janitor::clean_names() %>% drop_na() %>% mutate(
  sports_balls = as.integer(sports_balls)
)
mr_trash_wheel
```

    ## # A tibble: 344 x 14
    ##    dumpster month  year date                weight_tons volume_cubic_ya…
    ##       <dbl> <chr> <dbl> <dttm>                    <dbl>            <dbl>
    ##  1        1 May    2014 2014-05-16 00:00:00        4.31               18
    ##  2        2 May    2014 2014-05-16 00:00:00        2.74               13
    ##  3        3 May    2014 2014-05-16 00:00:00        3.45               15
    ##  4        4 May    2014 2014-05-17 00:00:00        3.1                15
    ##  5        5 May    2014 2014-05-17 00:00:00        4.06               18
    ##  6        6 May    2014 2014-05-20 00:00:00        2.71               13
    ##  7        7 May    2014 2014-05-21 00:00:00        1.91                8
    ##  8        8 May    2014 2014-05-28 00:00:00        3.7                16
    ##  9        9 June   2014 2014-06-05 00:00:00        2.52               14
    ## 10       10 June   2014 2014-06-11 00:00:00        3.76               18
    ## # … with 334 more rows, and 8 more variables: plastic_bottles <dbl>,
    ## #   polystyrene <dbl>, cigarette_butts <dbl>, glass_bottles <dbl>,
    ## #   grocery_bags <dbl>, chip_bags <dbl>, sports_balls <int>,
    ## #   homes_powered <dbl>
…
``` r
precip_2017to2018 = full_join(precip_2017,precip_2018) %>% mutate(
  month = month.name[month]
)
precip_2017to2018
```

    ## # A tibble: 24 x 3
    ##     year month     total
    ##    <dbl> <chr>     <dbl>
    ##  1  2017 January    2.34
    ##  2  2017 February   1.46
    ##  3  2017 March      3.57
    ##  4  2017 April      3.99
    ##  5  2017 May        5.64
    ##  6  2017 June       1.4 
    ##  7  2017 July       7.09
    ##  8  2017 August     4.44
    ##  9  2017 September  1.95
    ## 10  2017 October    0   
    ## # … with 14 more rows
…
Problem 2
---------

``` r
pols_month = read_csv("./datasets/fivethirtyeight_datasets/pols-month.csv") %>% janitor::clean_names() %>% separate(mon, into = c("year", "month", "day")) %>% mutate(
  month = month.name[as.integer(month)],
  year = as.integer(year),
  day = as.integer(day),
  president = ifelse(prez_gop != 0, "gop", "dem")
) %>% select(year, month, president, everything(), -prez_gop, -prez_dem, -day)
pols_month
```

    ## # A tibble: 822 x 9
    ##     year month    president gov_gop sen_gop rep_gop gov_dem sen_dem rep_dem
    ##    <int> <chr>    <chr>       <dbl>   <dbl>   <dbl>   <dbl>   <dbl>   <dbl>
    ##  1  1947 January  dem            23      51     253      23      45     198
    ##  2  1947 February dem            23      51     253      23      45     198
    ##  3  1947 March    dem            23      51     253      23      45     198
    ##  4  1947 April    dem            23      51     253      23      45     198
    ##  5  1947 May      dem            23      51     253      23      45     198
    ##  6  1947 June     dem            23      51     253      23      45     198
    ##  7  1947 July     dem            23      51     253      23      45     198
    ##  8  1947 August   dem            23      51     253      23      45     198
    ##  9  1947 Septemb… dem            23      51     253      23      45     198
    ## 10  1947 October  dem            23      51     253      23      45     198
    ## # … with 812 more rows

``` r
snp = read_csv("./datasets/fivethirtyeight_datasets/snp.csv") %>% janitor::clean_names() %>% separate(date, into = c( "month","day","year")) %>% select(year, month, everything(), -day) %>% mutate(month = as.integer(month)) %>% arrange(year, month) %>%  mutate(month = month.name[month], year = as.integer(year))
snp
```

    ## # A tibble: 787 x 3
    ##     year month     close
    ##    <int> <chr>     <dbl>
    ##  1  1950 January    17.0
    ##  2  1950 February   17.2
    ##  3  1950 March      17.3
    ##  4  1950 April      18.0
    ##  5  1950 May        18.8
    ##  6  1950 June       17.7
    ##  7  1950 July       17.8
    ##  8  1950 August     18.4
    ##  9  1950 September  19.5
    ## 10  1950 October    19.5
    ## # … with 777 more rows
…
  if(unemp_tidy$month[i]=="mar"){unemp_tidy$month[i]=month.name[3]}
  if(unemp_tidy$month[i]=="apr"){unemp_tidy$month[i]=month.name[4]}
  if(unemp_tidy$month[i]=="may"){unemp_tidy$month[i]=month.name[5]}
  if(unemp_tidy$month[i]=="jun"){unemp_tidy$month[i]=month.name[6]}
  if(unemp_tidy$month[i]=="jul"){unemp_tidy$month[i]=month.name[7]}
  if(unemp_tidy$month[i]=="aug"){unemp_tidy$month[i]=month.name[8]}
  if(unemp_tidy$month[i]=="sep"){unemp_tidy$month[i]=month.name[9]}
  if(unemp_tidy$month[i]=="oct"){unemp_tidy$month[i]=month.name[10]}
  if(unemp_tidy$month[i]=="nov"){unemp_tidy$month[i]=month.name[11]}
  if(unemp_tidy$month[i]=="dec"){unemp_tidy$month[i]=month.name[12]}
}
unemp_tidy
```

    ## # A tibble: 816 x 3
    ##     year month     unemp_rate
    ##    <dbl> <chr>          <dbl>
    ##  1  1948 January          3.4
    ##  2  1948 February         3.8
    ##  3  1948 March            4  
    ##  4  1948 April            3.9
    ##  5  1948 May              3.5
    ##  6  1948 June             3.6
    ##  7  1948 July             3.6
    ##  8  1948 August           3.9
    ##  9  1948 September        3.8
    ## 10  1948 October          3.7
    ## # … with 806 more rows

``` r
df = full_join(snp, pols_month, by = c("year","month"))
df = full_join(df, unemp_tidy, by = c("year", "month"))
df
```

    ## # A tibble: 828 x 11
    ##     year month close president gov_gop sen_gop rep_gop gov_dem sen_dem
    ##    <dbl> <chr> <dbl> <chr>       <dbl>   <dbl>   <dbl>   <dbl>   <dbl>
    ##  1  1950 Janu…  17.0 dem            18      44     177      29      57
    ##  2  1950 Febr…  17.2 dem            18      44     177      29      57
    ##  3  1950 March  17.3 dem            18      44     177      29      57
    ##  4  1950 April  18.0 dem            18      44     177      29      57
    ##  5  1950 May    18.8 dem            18      44     177      29      57
    ##  6  1950 June   17.7 dem            18      44     177      29      57
    ##  7  1950 July   17.8 dem            18      44     177      29      57
    ##  8  1950 Augu…  18.4 dem            18      44     177      29      57
    ##  9  1950 Sept…  19.5 dem            18      44     177      29      57
    ## 10  1950 Octo…  19.5 dem            18      44     177      29      57
    ## # … with 818 more rows, and 2 more variables: rep_dem <dbl>,
    ## #   unemp_rate <dbl>
…
